<?xml version="1.0" encoding="UTF-8" standalone="no"?>
<!DOCTYPE svg PUBLIC "-//W3C//DTD SVG 1.0//EN" "http://www.w3.org/TR/2001/PR-SVG-20010719/DTD/svg10.dtd">
<svg width="15cm" height="9cm" viewBox="314 8 299 163" xmlns="http://www.w3.org/2000/svg" xmlns:xlink="http://www.w3.org/1999/xlink">
  <g>
    <rect style="fill: #ffffff" x="320.418" y="10.8177" width="54.7" height="110.329"/>
    <rect style="fill: none; fill-opacity:0; stroke-width: 2; stroke: #000000" x="320.418" y="10.8177" width="54.7" height="110.329"/>
    <text font-size="12.8" style="fill: #000000;text-anchor:middle;font-family:sans-serif;font-style:normal;font-weight:normal" x="347.768" y="69.5696">
      <tspan x="347.768" y="69.5696">Client</tspan>
    </text>
  </g>
  <g>
    <rect style="fill: #ffffff" x="536.638" y="13.5687" width="75.5442" height="54"/>
    <rect style="fill: none; fill-opacity:0; stroke-width: 2; stroke: #000000" x="536.638" y="13.5687" width="75.5442" height="54"/>
    <text font-size="12.8" style="fill: #000000;text-anchor:middle;font-family:sans-serif;font-style:normal;font-weight:normal" x="574.41" y="36.1562">
      <tspan x="574.41" y="36.1562">DHCP</tspan>
      <tspan x="574.41" y="52.1562">Server</tspan>
    </text>
  </g>
  <g>
    <line style="fill: none; fill-opacity:0; stroke-width: 2; stroke: #000000" x1="381.468" y1="16.1497" x2="521.23" y2="16.2074"/>
    <polygon style="fill: #000000" points="528.73,16.2105 518.728,21.2064 521.23,16.2074 518.732,11.2064 "/>
    <polygon style="fill: none; fill-opacity:0; stroke-width: 2; stroke: #000000" points="528.73,16.2105 518.728,21.2064 521.23,16.2074 518.732,11.2064 "/>
  </g>
  <text font-size="12.8" style="fill: #000000;text-anchor:start;font-family:sans-serif;font-style:normal;font-weight:normal" x="410.354" y="6.9797">
    <tspan x="410.354" y="6.9797"></tspan>
  </text>
  <text font-size="12.8" style="fill: #000000;text-anchor:start;font-family:sans-serif;font-style:normal;font-weight:normal" x="387.888" y="6.0627">
    <tspan x="387.888" y="6.0627"></tspan>
  </text>
  <g>
    <line style="fill: none; fill-opacity:0; stroke-width: 2; stroke: #000000" x1="529.106" y1="36.3238" x2="388.912" y2="36.3238"/>
    <polygon style="fill: #000000" points="381.412,36.3238 391.412,31.3238 388.912,36.3238 391.412,41.3238 "/>
    <polygon style="fill: none; fill-opacity:0; stroke-width: 2; stroke: #000000" points="381.412,36.3238 391.412,31.3238 388.912,36.3238 391.412,41.3238 "/>
  </g>
  <text font-size="12.8" style="fill: #000000;text-anchor:start;font-family:sans-serif;font-style:normal;font-weight:normal" x="397.516" y="23.9442">
    <tspan x="397.516" y="23.9442"></tspan>
  </text>
  <text font-size="12.8" style="fill: #000000;text-anchor:start;font-family:sans-serif;font-style:normal;font-weight:normal" x="395.744" y="19.7556">
    <tspan x="395.744" y="19.7556"></tspan>
  </text>
  <text font-size="4.51556" style="fill: #000000;text-anchor:start;font-family:sans-serif;font-style:normal;font-weight:normal" x="424.096" y="23.845">
    <tspan x="424.096" y="23.845">Client sends DHCP request</tspan>
  </text>
  <text font-size="12.8" style="fill: #000000;text-anchor:start;font-family:sans-serif;font-style:normal;font-weight:normal" x="401.468" y="42.6562">
    <tspan x="401.468" y="42.6562"></tspan>
  </text>
  <text font-size="4.51556" style="fill: #000000;text-anchor:start;font-family:sans-serif;font-style:normal;font-weight:normal" x="397.924" y="47.836">
    <tspan x="397.924" y="47.836">DHCP server assigns client an IP address and sends the</tspan>
    <tspan x="397.924" y="53.4804"> address of the server to boot from and the filename to boot</tspan>
    <tspan x="397.924" y="59.1249">on that server</tspan>
  </text>
  <text font-size="12.8" style="fill: #000000;text-anchor:start;font-family:sans-serif;font-style:normal;font-weight:normal" x="505.012" y="46.2002">
    <tspan x="505.012" y="46.2002"></tspan>
  </text>
  <text font-size="12.8" style="fill: #000000;text-anchor:start;font-family:sans-serif;font-style:normal;font-weight:normal" x="574.41" y="40.5688">
    <tspan x="574.41" y="40.5688"></tspan>
  </text>
  <text font-size="12.8" style="fill: #000000;text-anchor:start;font-family:sans-serif;font-style:normal;font-weight:normal" x="574.41" y="40.5688">
    <tspan x="574.41" y="40.5688"></tspan>
  </text>
  <g>
    <rect style="fill: #ffffff" x="536.76" y="71.2818" width="74.8489" height="67.8498"/>
    <rect style="fill: none; fill-opacity:0; stroke-width: 2; stroke: #000000" x="536.76" y="71.2818" width="74.8489" height="67.8498"/>
    <text font-size="12.8" style="fill: #000000;text-anchor:middle;font-family:sans-serif;font-style:normal;font-weight:normal" x="574.184" y="100.794">
      <tspan x="574.184" y="100.794">TFTP</tspan>
      <tspan x="574.184" y="116.794">Server</tspan>
    </text>
  </g>
  <text font-size="12.8" style="fill: #000000;text-anchor:start;font-family:sans-serif;font-style:normal;font-weight:normal" x="574.184" y="105.207">
    <tspan x="574.184" y="105.207"></tspan>
  </text>
  <text font-size="5.08" style="fill: #000000;text-anchor:start;font-family:sans-serif;font-style:normal;font-weight:normal" x="539.288" y="128.925">
    <tspan x="539.288" y="128.925">(may be on the same computer</tspan>
    <tspan x="539.288" y="135.275">as the DHCP server)</tspan>
  </text>
  <text font-size="12.8016" style="fill: #000000;text-anchor:start;font-family:sans-serif;font-style:normal;font-weight:normal" x="590.89" y="133.441">
    <tspan x="590.89" y="133.441"></tspan>
  </text>
  <text font-size="12.8" style="fill: #000000;text-anchor:start;font-family:sans-serif;font-style:normal;font-weight:normal" x="574.26" y="127.443">
    <tspan x="574.26" y="127.443"></tspan>
  </text>
  <g>
    <line style="fill: none; fill-opacity:0; stroke-width: 2; stroke: #000000" x1="378.514" y1="72.9176" x2="523.63" y2="72.9176"/>
    <polygon style="fill: #000000" points="531.13,72.9176 521.13,77.9176 523.63,72.9176 521.13,67.9176 "/>
    <polygon style="fill: none; fill-opacity:0; stroke-width: 2; stroke: #000000" points="531.13,72.9176 521.13,77.9176 523.63,72.9176 521.13,67.9176 "/>
  </g>
  <text font-size="12.8" style="fill: #000000;text-anchor:start;font-family:sans-serif;font-style:normal;font-weight:normal" x="383.422" y="77.5522">
    <tspan x="383.422" y="77.5522"></tspan>
  </text>
  <text font-size="4.51556" style="fill: #000000;text-anchor:start;font-family:sans-serif;font-style:normal;font-weight:normal" x="395.962" y="83.0048">
    <tspan x="395.962" y="83.0048">Client connects to TFTP server specified by DHCP server</tspan>
  </text>
  <g>
    <line style="fill: none; fill-opacity:0; stroke-width: 2; stroke: #000000" x1="533.638" y1="93.6372" x2="389.614" y2="93.6372"/>
    <polygon style="fill: #000000" points="382.114,93.6372 392.114,88.6372 389.614,93.6372 392.114,98.6372 "/>
    <polygon style="fill: none; fill-opacity:0; stroke-width: 2; stroke: #000000" points="382.114,93.6372 392.114,88.6372 389.614,93.6372 392.114,98.6372 "/>
  </g>
  <text font-size="12.8" style="fill: #000000;text-anchor:start;font-family:sans-serif;font-style:normal;font-weight:normal" x="394.6" y="101.816">
    <tspan x="394.6" y="101.816"></tspan>
  </text>
  <text font-size="4.51556" style="fill: #000000;text-anchor:start;font-family:sans-serif;font-style:normal;font-weight:normal" x="385.058" y="106.178">
    <tspan x="385.058" y="106.178">TFTP server sends client the requested file, which the client will then boot</tspan>
  </text>
  <text font-size="12.8" style="fill: #000000;text-anchor:start;font-family:sans-serif;font-style:normal;font-weight:normal" x="512.646" y="104.815">
    <tspan x="512.646" y="104.815"></tspan>
  </text>
  <text font-size="6.77333" style="fill: #000000;text-anchor:start;font-family:sans-serif;font-style:normal;font-weight:normal" x="314.72" y="153.07">
    <tspan x="314.72" y="153.07">In the case of FOG, as used in this project, the FOG server runs both the DHCP server and the</tspan>
    <tspan x="314.72" y="161.536">TFTP server. This allows it to be configured to send different images to different clients, identified</tspan>
    <tspan x="314.72" y="170.003">via MAC address.</tspan>
  </text>
  <text font-size="12.8" style="fill: #000000;text-anchor:start;font-family:sans-serif;font-style:normal;font-weight:normal" x="526.004" y="150.071">
    <tspan x="526.004" y="150.071"></tspan>
  </text>
</svg>
